{
  "src": [
    "/static/sounds/effects.ogg",
    "/static/sounds/effects.m4a",
    "/static/sounds/effects.mp3",
    "/static/sounds/effects.ac3"
  ],
  "sprite": {
    "firework": [
      0,
      626.9387755102041
    ],
    "hit-brick": [
      2000,
      548.5714285714284
    ],
    "hit-question-block": [
      4000,
      2586.122448979592
    ],
    "jump": [
      8000,
      496.3265306122455
    ],
    "kill-enemy": [
      10000,
      455.986394557824
    ],
    "knockout": [
      12000,
      1201.6326530612246
    ]
  }
}